Lab 7/Lab 7_Student1/simulation/qsim/Lab7.msim.vcd
$comment
	File created using the following command:
		vcd file Lab7.msim.vcd -direction
$end
$date
	Mon May 10 09:49:53 2021
$end
$version
	ModelSim Version 10.4b
$end
$timescale
	1ps
$end

$scope module ring_vlg_vec_tst $end
$var reg 1 ! CLK $end
$var wire 1 " Q [3] $end
$var wire 1 # Q [2] $end
$var wire 1 $ Q [1] $end
$var wire 1 % Q [0] $end

$scope module i1 $end
$var wire 1 & gnd $end
$var wire 1 ' vcc $end
$var wire 1 ( unknown $end
$var tri1 1 ) devclrn $end
$var tri1 1 * devpor $end
$var tri1 1 + devoe $end
$var wire 1 , Q[0]~output_o $end
$var wire 1 - Q[1]~output_o $end
$var wire 1 . Q[2]~output_o $end
$var wire 1 / Q[3]~output_o $end
$var wire 1 0 CLK~input_o $end
$var wire 1 1 FF4|tp~0_combout $end
$var wire 1 2 FF4|tp~q $end
$var wire 1 3 FF2|tp~q $end
$var wire 1 4 FF3|tp~q $end
$var wire 1 5 FF1|tp~0_combout $end
$var wire 1 6 FF1|tp~q $end
$upscope $end
$upscope $end
$enddefinitions $end
#0
$dumpvars
0!
1%
0$
0#
0"
0&
1'
x(
1)
1*
1+
1,
0-
0.
0/
00
11
02
03
04
15
06
$end
#100000
1!
10
#200000
0!
00
16
12
1/
0,
0%
1"
01
#300000
1!
10
#400000
0!
00
02
13
1.
0/
0"
1#
#500000
1!
10
#600000
0!
00
03
14
1-
0.
0#
1$
05
#700000
1!
10
#800000
0!
00
06
04
0-
1,
1%
0$
11
15
#900000
1!
10
