Lab 4/simulation/qsim/Assignment-4.msim.vcd
$comment
	File created using the following command:
		vcd file Assignment-4.msim.vcd -direction
$end
$date
	Tue May 04 13:08:17 2021
$end
$version
	ModelSim Version 10.4b
$end
$timescale
	1ps
$end

$scope module comparator_4_bit_vlg_vec_tst $end
$var reg 1 ! a0 $end
$var reg 1 " a1 $end
$var reg 1 # a2 $end
$var reg 1 $ a3 $end
$var reg 1 % b0 $end
$var reg 1 & b1 $end
$var reg 1 ' b2 $end
$var reg 1 ( b3 $end
$var wire 1 ) aisgr $end
$var wire 1 * bisgr $end
$var wire 1 + iseq $end

$scope module i1 $end
$var wire 1 , gnd $end
$var wire 1 - vcc $end
$var wire 1 . unknown $end
$var tri1 1 / devclrn $end
$var tri1 1 0 devpor $end
$var tri1 1 1 devoe $end
$var wire 1 2 aisgr~output_o $end
$var wire 1 3 bisgr~output_o $end
$var wire 1 4 iseq~output_o $end
$var wire 1 5 a3~input_o $end
$var wire 1 6 a2~input_o $end
$var wire 1 7 b2~input_o $end
$var wire 1 8 b3~input_o $end
$var wire 1 9 aisgr~0_combout $end
$var wire 1 : a1~input_o $end
$var wire 1 ; a0~input_o $end
$var wire 1 < b0~input_o $end
$var wire 1 = b1~input_o $end
$var wire 1 > aisgr~1_combout $end
$var wire 1 ? aisgr~2_combout $end
$var wire 1 @ aisgr~3_combout $end
$var wire 1 A bisgr~0_combout $end
$var wire 1 B bisgr~1_combout $end
$var wire 1 C bisgr~2_combout $end
$var wire 1 D iseq~0_combout $end
$var wire 1 E iseq~1_combout $end
$upscope $end
$upscope $end
$enddefinitions $end
#0
$dumpvars
0!
0"
0#
0$
0%
0&
0'
0(
0)
0*
1+
0,
1-
x.
1/
10
11
02
03
14
05
06
07
08
09
0:
0;
0<
0=
0>
1?
0@
0A
0B
0C
0D
0E
$end
#10000
1(
18
1A
0?
1E
1C
13
04
0+
1*
#20000
1'
0(
17
08
#30000
1(
18
#40000
1&
0'
0(
1=
07
08
1D
1B
0A
1?
#50000
1(
18
1A
0?
#60000
1'
0(
17
08
#70000
1(
18
#80000
1%
0&
0'
0(
1<
0=
07
08
0A
1?
#90000
1(
18
1A
0?
#100000
1'
0(
17
08
#110000
1(
18
#120000
1&
0'
0(
1=
07
08
0A
1?
#130000
1(
18
1A
0?
#140000
1'
0(
17
08
#150000
1(
18
#160000
1$
0%
0&
0'
0(
15
0<
0=
07
08
0A
19
0D
0B
0C
1@
12
03
0*
1)
#170000
1(
18
1?
09
0E
0@
02
14
1+
0)
#180000
1'
0(
17
08
0?
19
1E
1@
12
04
0+
1)
#190000
1(
18
1A
09
1C
0@
02
13
1*
0)
#200000
1&
0'
0(
1=
07
08
1D
1B
0A
19
0C
1@
12
03
0*
1)
#210000
1(
18
1?
09
1C
0@
02
13
1*
0)
#220000
1'
0(
17
08
0?
19
0C
1@
12
03
0*
1)
#230000
1(
18
1A
09
1C
0@
02
13
1*
0)
#240000
1%
0&
0'
0(
1<
0=
07
08
0A
19
0C
1@
12
03
0*
1)
#250000
1(
18
1?
09
1C
0@
02
13
1*
0)
#260000
1'
0(
17
08
0?
19
0C
1@
12
03
0*
1)
#270000
1(
18
1A
09
1C
0@
02
13
1*
0)
#280000
1&
0'
0(
1=
07
08
0A
19
0C
1@
12
03
0*
1)
#290000
1(
18
1?
09
1C
0@
02
13
1*
0)
#300000
1'
0(
17
08
0?
19
0C
1@
12
03
0*
1)
#310000
1(
18
1A
09
1C
0@
02
13
1*
0)
#320000
1#
0$
0%
0&
0'
0(
16
05
0<
0=
07
08
0A
19
0D
0B
0C
1@
12
03
0*
1)
#330000
1(
18
1A
09
1C
0@
02
13
1*
0)
#340000
1'
0(
17
08
0A
1?
0E
0C
03
14
1+
0*
#350000
1(
18
1A
0?
1E
1C
13
04
0+
1*
#360000
1&
0'
0(
1=
07
08
1D
1B
0A
19
0C
1@
12
03
0*
1)
#370000
1(
18
1A
09
1C
0@
02
13
1*
0)
#380000
1'
0(
17
08
0A
1?
#390000
1(
18
1A
0?
#400000
1%
0&
0'
0(
1<
0=
07
08
0A
19
0C
1@
12
03
0*
1)
#410000
1(
18
1A
09
1C
0@
02
13
1*
0)
#420000
1'
0(
17
08
0A
1?
#430000
1(
18
1A
0?
#440000
1&
0'
0(
1=
07
08
0A
19
0C
1@
12
03
0*
1)
#450000
1(
18
1A
09
1C
0@
02
13
1*
0)
#460000
1'
0(
17
08
0A
1?
#470000
1(
18
1A
0?
#480000
1$
0%
0&
0'
0(
15
0<
0=
07
08
0A
19
0D
0B
0C
1@
12
03
0*
1)
#490000
1(
18
#500000
1'
0(
17
08
#510000
1(
18
1?
09
0E
0@
02
14
1+
0)
#520000
1&
0'
0(
1=
07
08
1D
1B
0?
19
1E
1@
12
04
0+
1)
#530000
1(
18
#540000
1'
0(
17
08
#550000
1(
18
1?
09
1C
0@
02
13
1*
0)
#560000
1%
0&
0'
0(
1<
0=
07
08
0?
19
0C
1@
12
03
0*
1)
#570000
1(
18
#580000
1'
0(
17
08
#590000
1(
18
1?
09
1C
0@
02
13
1*
0)
#600000
1&
0'
0(
1=
07
08
0?
19
0C
1@
12
03
0*
1)
#610000
1(
18
#620000
1'
0(
17
08
#630000
1(
18
1?
09
1C
0@
02
13
1*
0)
#640000
1"
0#
0$
0%
0&
0'
0(
1:
06
05
0<
0=
07
08
0B
1>
0C
1@
12
03
0*
1)
#650000
1(
18
1A
0?
1C
0@
02
13
1*
0)
#660000
1'
0(
17
08
#670000
1(
18
#680000
1&
0'
0(
1=
07
08
0D
0>
0A
1?
0E
0C
03
14
1+
0*
#690000
1(
18
1A
0?
1E
1C
13
04
0+
1*
#700000
1'
0(
17
08
#710000
1(
18
#720000
1%
0&
0'
0(
1<
0=
07
08
1D
1>
0A
1?
1@
0C
03
12
1)
0*
#730000
1(
18
1A
0?
1C
0@
02
13
1*
0)
#740000
1'
0(
17
08
#750000
1(
18
#760000
1&
0'
0(
1=
07
08
1B
0>
0A
1?
#770000
1(
18
1A
0?
#780000
1'
0(
17
08
#790000
1(
18
#800000
1$
0%
0&
0'
0(
15
0<
0=
07
08
0A
19
0B
1>
0C
1@
12
03
0*
1)
#810000
1(
18
1?
09
#820000
1'
0(
17
08
0?
19
#830000
1(
18
1A
09
1C
0@
02
13
1*
0)
#840000
1&
0'
0(
1=
07
08
0D
0>
0A
19
1@
0C
03
12
1)
0*
#850000
1(
18
1?
09
0E
0@
02
14
1+
0)
#860000
1'
0(
17
08
0?
19
1E
1@
12
04
0+
1)
#870000
1(
18
1A
09
1C
0@
02
13
1*
0)
#880000
1%
0&
0'
0(
1<
0=
07
08
1D
1>
0A
19
1@
0C
03
12
1)
0*
#890000
1(
18
1?
09
#900000
1'
0(
17
08
0?
19
#910000
1(
18
1A
09
1C
0@
02
13
1*
0)
#920000
1&
0'
0(
1=
07
08
1B
0>
0A
19
0C
1@
12
03
0*
1)
#930000
1(
18
1?
09
1C
0@
02
13
1*
0)
#940000
1'
0(
17
08
0?
19
0C
1@
12
03
0*
1)
#950000
1(
18
1A
09
1C
0@
02
13
1*
0)
#960000
1#
0$
0%
0&
0'
0(
16
05
0<
0=
07
08
0A
19
0B
1>
0C
1@
12
03
0*
1)
#970000
1(
18
1A
09
1C
0@
02
13
1*
0)
#980000
1'
0(
17
08
0A
1?
0C
1@
12
03
0*
1)
#990000
1(
18
1A
0?
1C
0@
02
13
1*
0)
