Lab 2/Assi2/simulation/qsim/Assi2.msim.vcd
$comment
	File created using the following command:
		vcd file Assi2.msim.vcd -direction
$end
$date
	Thu Apr 29 10:04:20 2021
$end
$version
	ModelSim Version 10.4b
$end
$timescale
	1ps
$end

$scope module Q9_vlg_vec_tst $end
$var reg 1 ! A $end
$var reg 1 " B $end
$var reg 1 # C $end
$var reg 1 $ D $end
$var wire 1 % f $end

$scope module i1 $end
$var wire 1 & gnd $end
$var wire 1 ' vcc $end
$var wire 1 ( unknown $end
$var tri1 1 ) devclrn $end
$var tri1 1 * devpor $end
$var tri1 1 + devoe $end
$var wire 1 , f~output_o $end
$var wire 1 - C~input_o $end
$var wire 1 . D~input_o $end
$var wire 1 / A~input_o $end
$var wire 1 0 B~input_o $end
$var wire 1 1 inst10~0_combout $end
$upscope $end
$upscope $end
$enddefinitions $end
#0
$dumpvars
0!
0"
0#
0$
0%
0&
1'
x(
1)
1*
1+
0,
0-
0.
0/
00
11
$end
#25000
1$
1.
#50000
1#
0$
1-
0.
01
1,
1%
#75000
1"
1$
10
1.
#100000
1!
0#
0$
1/
0-
0.
#125000
1$
1.
#150000
0"
1#
0$
00
1-
0.
11
0,
0%
#175000
1$
1.
#200000
0!
0#
0$
0/
0-
0.
#225000
1"
1$
10
1.
#250000
1#
0$
1-
0.
#275000
1$
1.
01
1,
1%
#300000
1!
0"
0#
0$
1/
00
0-
0.
11
0,
0%
#325000
1$
1.
01
1,
1%
#350000
1#
0$
1-
0.
11
0,
0%
#375000
1"
1$
10
1.
01
1,
1%
#400000
0!
0#
0$
0/
0-
0.
11
0,
0%
#425000
1$
1.
#450000
0"
1#
0$
00
1-
0.
01
1,
1%
#475000
1$
1.
11
0,
0%
#500000
1!
0#
0$
1/
0-
0.
#525000
1"
1$
10
1.
01
1,
1%
#550000
1#
0$
1-
0.
#575000
1$
1.
#600000
0!
0"
0#
0$
0/
00
0-
0.
11
0,
0%
#625000
1$
1.
#650000
1#
0$
1-
0.
01
1,
1%
#675000
1"
1$
10
1.
#700000
1!
0#
0$
1/
0-
0.
#725000
1$
1.
#750000
0"
1#
0$
00
1-
0.
11
0,
0%
#775000
1$
1.
#800000
0!
0#
0$
0/
0-
0.
#825000
1"
1$
10
1.
#850000
1#
0$
1-
0.
#875000
1$
1.
01
1,
1%
#900000
1!
0"
0#
0$
1/
00
0-
0.
11
0,
0%
#925000
1$
1.
01
1,
1%
#950000
1#
0$
1-
0.
11
0,
0%
#975000
1"
1$
10
1.
01
1,
1%
