Lab 7/Lab 7_Student3/Assignment7/simulation/qsim/Assignment7.msim.vcd
$comment
	File created using the following command:
		vcd file Assignment7.msim.vcd -direction
$end
$date
	Mon May 10 14:08:40 2021
$end
$version
	ModelSim Version 10.3c
$end
$timescale
	1ps
$end

$scope module johnson_counter_vlg_vec_tst $end
$var reg 1 ! CLOCK $end
$var reg 1 " RESET $end
$var wire 1 # I [3] $end
$var wire 1 $ I [2] $end
$var wire 1 % I [1] $end
$var wire 1 & I [0] $end
$var wire 1 ' sampler $end

$scope module i1 $end
$var wire 1 ( gnd $end
$var wire 1 ) vcc $end
$var wire 1 * unknown $end
$var tri1 1 + devclrn $end
$var tri1 1 , devpor $end
$var tri1 1 - devoe $end
$var wire 1 . I[0]~output_o $end
$var wire 1 / I[1]~output_o $end
$var wire 1 0 I[2]~output_o $end
$var wire 1 1 I[3]~output_o $end
$var wire 1 2 CLOCK~input_o $end
$var wire 1 3 D1|I~0_combout $end
$var wire 1 4 RESET~input_o $end
$var wire 1 5 D1|I~q $end
$var wire 1 6 D2|I~q $end
$var wire 1 7 D3|I~q $end
$var wire 1 8 D0|I~q $end
$upscope $end
$upscope $end
$enddefinitions $end
#0
$dumpvars
0!
0"
1&
0%
0$
0#
x'
0(
1)
x*
1+
1,
1-
1.
0/
00
01
02
13
04
05
06
07
08
$end
#10000
1!
0'
12
15
1/
1%
#20000
0!
1'
02
#30000
1!
0'
12
16
10
1$
#40000
0!
1'
02
#50000
1!
0'
12
17
11
1#
#60000
0!
1'
02
#70000
1!
0'
12
18
0.
0&
03
#80000
0!
1'
02
#90000
1!
0'
12
05
0/
0%
#100000
0!
1'
02
#110000
1!
0'
12
06
00
0$
#120000
0!
1'
02
#130000
1!
0'
12
07
01
0#
#140000
0!
1'
02
#150000
1!
0'
12
08
1.
1&
13
#160000
0!
1'
02
#170000
1!
0'
12
15
1/
1%
#180000
0!
1'
02
#190000
1!
0'
12
16
10
1$
#200000
0!
1'
02
#210000
1!
0'
12
17
11
1#
#220000
0!
1'
02
#230000
1!
0'
12
18
0.
0&
03
#240000
0!
1'
02
#250000
1!
0'
12
05
0/
0%
#260000
0!
1'
02
#270000
1!
0'
12
06
00
0$
#280000
0!
1'
02
#290000
1!
0'
12
07
01
0#
#300000
0!
1'
02
#310000
1!
0'
12
08
1.
1&
13
#320000
0!
1'
02
#330000
1!
0'
12
15
1/
1%
#340000
0!
1'
02
#350000
1!
0'
12
16
10
1$
#360000
0!
1'
02
#370000
1!
0'
12
17
11
1#
#380000
0!
1'
02
#390000
1!
0'
12
18
0.
0&
03
#400000
0!
1'
02
#410000
1!
0'
12
05
0/
0%
#420000
0!
1'
02
#430000
1!
0'
12
06
00
0$
#440000
0!
1'
02
#450000
1!
0'
12
07
01
0#
#460000
0!
1'
02
#470000
1!
0'
12
08
1.
1&
13
#480000
0!
1'
02
#490000
1!
0'
12
15
1/
1%
#500000
0!
1'
02
#510000
1!
0'
12
16
10
1$
#520000
0!
1'
02
#530000
1!
0'
12
17
11
1#
#540000
0!
1'
02
#550000
1!
0'
12
18
0.
0&
03
#560000
0!
1'
02
#570000
1!
0'
12
05
0/
0%
#580000
0!
1'
02
#590000
1!
0'
12
06
00
0$
#600000
0!
1'
02
#610000
1!
0'
12
07
01
0#
#620000
0!
1'
02
#630000
1!
0'
12
08
1.
1&
13
#640000
0!
1'
02
#650000
1!
0'
12
15
1/
1%
#660000
0!
1'
02
#670000
1!
0'
12
16
10
1$
#680000
0!
1'
02
#690000
1!
0'
12
17
11
1#
#700000
0!
1'
02
#710000
1!
0'
12
18
0.
0&
03
#720000
0!
1'
02
#730000
1!
0'
12
05
0/
0%
#740000
0!
1'
02
#750000
1!
0'
12
06
00
0$
#760000
0!
1'
02
#770000
1!
0'
12
07
01
0#
#780000
0!
1'
02
#790000
1!
0'
12
08
1.
1&
13
#800000
0!
1'
02
#810000
1!
0'
12
15
1/
1%
#820000
0!
1'
02
#830000
1!
0'
12
16
10
1$
#840000
0!
1'
02
#850000
1!
0'
12
17
11
1#
#860000
0!
1'
02
#870000
1!
0'
12
18
0.
0&
03
#880000
0!
1'
02
#890000
1!
0'
12
05
0/
0%
#900000
0!
1'
02
#910000
1!
0'
12
06
00
0$
#920000
0!
1'
02
#930000
1!
0'
12
07
01
0#
#940000
0!
1'
02
#950000
1!
0'
12
08
1.
1&
13
#960000
0!
1'
02
#970000
1!
0'
12
15
1/
1%
#980000
0!
1'
02
#990000
1!
0'
12
16
10
1$
