Lab 3/Student 2/simulation/qsim/Lab3.msim.vcd
$comment
	File created using the following command:
		vcd file Lab3.msim.vcd -direction
$end
$date
	Tue May 04 12:47:16 2021
$end
$version
	ModelSim Version 10.4b
$end
$timescale
	1ps
$end

$scope module ASU_updated_vlg_vec_tst $end
$var reg 1 ! CONTROL $end
$var reg 4 " X [3:0] $end
$var reg 4 # Y [3:0] $end
$var wire 1 $ A $end
$var wire 1 % B $end
$var wire 1 & C $end
$var wire 1 ' Cout $end
$var wire 1 ( D $end
$var wire 1 ) OVERFLOW $end

$scope module i1 $end
$var wire 1 * gnd $end
$var wire 1 + vcc $end
$var wire 1 , unknown $end
$var tri1 1 - devclrn $end
$var tri1 1 . devpor $end
$var tri1 1 / devoe $end
$var wire 1 0 A~output_o $end
$var wire 1 1 B~output_o $end
$var wire 1 2 C~output_o $end
$var wire 1 3 D~output_o $end
$var wire 1 4 Cout~output_o $end
$var wire 1 5 OVERFLOW~output_o $end
$var wire 1 6 CONTROL~input_o $end
$var wire 1 7 X[2]~input_o $end
$var wire 1 8 Y[2]~input_o $end
$var wire 1 9 Y[0]~input_o $end
$var wire 1 : FA0|Cout~0_combout $end
$var wire 1 ; X[0]~input_o $end
$var wire 1 < FA0|Cout~1_combout $end
$var wire 1 = X[1]~input_o $end
$var wire 1 > Y[1]~input_o $end
$var wire 1 ? comb~0_combout $end
$var wire 1 @ FA1|Cout~0_combout $end
$var wire 1 A FA2|sum~0_combout $end
$var wire 1 B FA1|sum~combout $end
$var wire 1 C final|outA~0_combout $end
$var wire 1 D final|outB~combout $end
$var wire 1 E final|outC~0_combout $end
$var wire 1 F final|outD~combout $end
$var wire 1 G Y[3]~input_o $end
$var wire 1 H X[3]~input_o $end
$var wire 1 I FA2|Cout~0_combout $end
$var wire 1 J FA3|Cout~0_combout $end
$var wire 1 K OVERFLOW~2_combout $end
$upscope $end
$upscope $end
$enddefinitions $end
#0
$dumpvars
0!
b0 "
b0 #
0$
1%
1&
0'
1(
0)
0*
1+
x,
1-
1.
1/
00
11
12
13
04
05
06
07
08
09
0:
0;
0<
0=
0>
0?
0@
0A
0B
0C
1D
1E
1F
0G
0H
0I
0J
0K
$end
#10000
b1 #
19
0F
0E
1C
10
02
03
0(
0&
1$
#20000
b11 #
b10 #
09
1>
1?
1F
1E
0C
00
12
13
1B
1(
1&
0$
#30000
b11 #
19
0F
03
0(
#40000
b111 #
b101 #
b100 #
09
0>
18
0?
1A
1F
13
0B
1(
0E
1C
10
02
0&
1$
0D
01
0%
#50000
b101 #
19
#60000
b111 #
b110 #
09
1>
1?
1B
1D
11
1%
#70000
b111 #
19
0C
00
0$
#80000
b1111 #
b1011 #
b1001 #
b1000 #
09
0>
08
1G
0?
0A
1C
10
0B
1$
1E
0C
00
12
1&
0$
#90000
b1001 #
19
0F
0E
1C
10
02
03
0(
0&
1$
#100000
b1011 #
b1010 #
09
1>
1?
1F
1E
0C
00
12
13
1B
1(
1&
0$
#110000
b1011 #
19
0F
03
0(
#120000
b1111 #
b1101 #
b1100 #
09
0>
18
0?
1A
1F
13
0B
1(
0E
1C
10
02
0&
1$
0D
01
0%
#130000
b1101 #
19
#140000
b1111 #
b1110 #
09
1>
1?
1B
1D
11
1%
#150000
b1111 #
19
0C
00
0$
#160000
b1 "
b111 #
b11 #
b1 #
b0 #
09
0>
08
0G
1;
0?
0A
0B
0F
1E
12
03
0(
1&
0E
1C
10
02
0&
1$
#170000
b1 #
19
1<
1F
1E
0C
00
12
13
1B
1(
1&
0$
#180000
b11 #
b10 #
09
1>
0<
1?
0F
03
0(
#190000
b11 #
19
1<
1F
13
0B
1@
1(
1A
0E
0D
1C
10
01
02
0&
0%
1$
#200000
b111 #
b101 #
b100 #
09
0>
18
0<
0?
1I
0A
0@
1K
0F
1D
11
03
15
0I
1A
1)
0(
1%
0K
1F
0D
01
13
05
0)
1(
0%
#210000
b101 #
19
1<
1B
1D
11
1%
#220000
b111 #
b110 #
09
1>
0<
1?
0C
00
0$
#230000
b111 #
19
1<
1C
10
0B
1@
1$
1I
0A
0D
01
0%
1K
1E
1D
0C
00
11
12
15
1)
1&
1%
0$
#240000
b1111 #
b1011 #
b1001 #
b1000 #
09
0>
08
1G
0<
0?
0I
1A
0F
0E
1C
0K
1J
14
05
10
02
03
0@
0(
0&
1$
0)
1'
0J
1F
0D
01
13
04
0A
0'
1(
0%
0F
1D
11
03
0(
1%
#250000
b1001 #
19
1<
1F
1E
0C
00
12
13
1B
1(
1&
0$
#260000
b1011 #
b1010 #
09
1>
0<
1?
0F
03
0(
#270000
b1011 #
19
1<
1F
13
0B
1@
1(
1A
0E
0D
1C
10
01
02
0&
0%
1$
#280000
b1111 #
b1101 #
b1100 #
09
0>
18
0<
0?
1I
0A
0@
1J
0F
1D
11
03
14
0I
1A
1'
0(
1%
0J
1F
0D
01
13
04
0'
1(
0%
#290000
b1101 #
19
1<
1B
1D
11
1%
#300000
b1111 #
b1110 #
09
1>
0<
1?
0C
00
0$
#310000
b1111 #
19
1<
1C
10
0B
1@
1$
1I
0A
0D
01
0%
1J
1E
1D
0C
00
11
12
14
1'
1&
1%
0$
#320000
b11 "
b10 "
b111 #
b11 #
b1 #
b0 #
09
0>
08
0G
0;
1=
0<
0?
0I
1A
1B
1K
0J
04
15
0@
1)
0'
0K
0E
1C
10
02
05
0A
0)
0&
1$
1E
0C
00
12
1&
0$
#330000
b1 #
19
0F
03
0(
#340000
b11 #
b10 #
09
1>
1?
1F
13
0B
1@
1(
1A
0E
0D
1C
10
01
02
0&
0%
1$
#350000
b11 #
19
#360000
b111 #
b101 #
b100 #
09
0>
18
0?
1I
0A
1B
0@
1K
1E
1D
0C
00
11
12
15
0I
1A
1)
1&
1%
0$
0K
0E
1C
10
02
05
0)
0&
1$
#370000
b101 #
19
0C
00
0$
#380000
b111 #
b110 #
09
1>
1?
1C
10
0B
1@
1$
1I
0A
0D
01
0%
1K
1E
1D
0C
00
11
12
15
1)
1&
1%
0$
#390000
b111 #
19
0F
0E
1C
10
02
03
0(
0&
1$
#400000
b1111 #
b1011 #
b1001 #
b1000 #
09
0>
08
1G
0?
0I
1A
1F
1E
0C
0K
1J
14
05
00
12
13
1B
0@
1(
1&
0$
0)
1'
0J
0E
0D
1C
10
01
02
04
0A
0'
0&
0%
1$
1D
11
1%
1E
0C
00
12
1&
0$
#410000
b1001 #
19
0F
03
0(
#420000
b1011 #
b1010 #
09
1>
1?
1F
13
0B
1@
1(
1A
0E
0D
1C
10
01
02
0&
0%
1$
#430000
b1011 #
19
#440000
b1111 #
b1101 #
b1100 #
09
0>
18
0?
1I
0A
1B
0@
1J
1E
1D
0C
00
11
12
14
0I
1A
1'
1&
1%
0$
0J
0E
1C
10
02
04
0'
0&
1$
#450000
b1101 #
19
0C
00
0$
#460000
b1111 #
b1110 #
09
1>
1?
1C
10
0B
1@
1$
1I
0A
0D
01
0%
1J
1E
1D
0C
00
11
12
14
1'
1&
1%
0$
#470000
b1111 #
19
0F
0E
1C
10
02
03
0(
0&
1$
#480000
b11 "
b111 #
b11 #
b1 #
b0 #
09
0>
08
0G
1;
0?
0I
1A
1K
0J
04
15
1B
0@
1)
0'
0K
1F
0D
01
13
05
0A
0)
1(
0%
1D
0C
00
11
1%
0$
0F
1E
12
03
0(
1&
#490000
b1 #
19
1<
1F
13
0B
1@
1(
1A
0E
0D
1C
10
01
02
0&
0%
1$
#500000
b11 #
b10 #
09
1>
0<
1?
#510000
b11 #
19
1<
1B
1D
11
1%
#520000
b111 #
b101 #
b100 #
09
0>
18
0<
0?
1I
0A
0C
00
0@
0$
1K
0F
1E
12
03
15
0I
1A
1)
0(
1&
0K
1F
0E
02
13
05
0)
1(
0&
#530000
b101 #
19
1<
1C
10
0B
1@
1$
1I
0A
0D
01
0%
1K
1E
1D
0C
00
11
12
15
1)
1&
1%
0$
#540000
b111 #
b110 #
09
1>
0<
1?
0F
0E
1C
10
02
03
0(
0&
1$
#550000
b111 #
19
1<
1F
1E
0C
00
12
13
1B
1(
1&
0$
#560000
b1111 #
b1011 #
b1001 #
b1000 #
09
0>
08
1G
0<
0?
0I
1A
0F
0K
1J
14
05
03
0@
0(
0)
1'
0J
1F
0E
02
13
04
0A
0'
1(
0&
0F
1E
12
03
0(
1&
#570000
b1001 #
19
1<
1F
13
0B
1@
1(
1A
0E
0D
1C
10
01
02
0&
0%
1$
#580000
b1011 #
b1010 #
09
1>
0<
1?
#590000
b1011 #
19
1<
1B
1D
11
1%
#600000
b1111 #
b1101 #
b1100 #
09
0>
18
0<
0?
1I
0A
0C
00
0@
0$
1J
0F
1E
12
03
14
0I
1A
1'
0(
1&
0J
1F
0E
02
13
04
0'
1(
0&
#610000
b1101 #
19
1<
1C
10
0B
1@
1$
1I
0A
0D
01
0%
1J
1E
1D
0C
00
11
12
14
1'
1&
1%
0$
#620000
b1111 #
b1110 #
09
1>
0<
1?
0F
0E
1C
10
02
03
0(
0&
1$
#630000
b1111 #
19
1<
1F
1E
0C
00
12
13
1B
1(
1&
0$
#640000
1!
b111 "
b101 "
b100 "
b111 #
b11 #
b1 #
b0 #
16
09
0>
08
0G
0;
0=
17
1A
0<
1:
0B
0E
0D
1C
10
01
02
0&
0%
1$
#650000
b1 #
19
0:
1B
0@
0A
1D
0C
00
11
1%
0$
0F
1E
12
03
0(
1&
#660000
b11 #
b10 #
09
1>
1:
0?
1F
13
1(
#670000
b11 #
19
0:
0F
03
0B
0(
0E
1C
10
02
0&
1$
#680000
b111 #
b101 #
b100 #
09
0>
18
1:
1?
0I
1A
1F
1E
0C
00
12
13
1@
1(
1&
0$
0J
0E
0D
1C
10
01
02
04
1I
0A
0'
0&
0%
1$
1J
1E
1D
0C
00
11
12
14
1'
1&
1%
0$
#690000
b101 #
19
0:
0F
0E
1C
10
02
03
1B
0@
0(
0&
1$
0I
1A
1E
0C
00
12
1&
0$
0J
1F
0E
02
13
04
0'
1(
0&
#700000
b111 #
b110 #
09
1>
1:
0?
1C
10
1$
#710000
b111 #
19
0:
0C
00
0B
0$
0D
1C
10
01
0%
1$
#720000
b1111 #
b1011 #
b1001 #
b1000 #
09
0>
08
1G
1:
1?
1I
0A
1@
1K
1E
1D
0C
00
11
12
15
1A
1)
1&
1%
0$
0E
0D
1C
10
01
02
0&
0%
1$
#730000
b1001 #
19
0:
1B
0@
0A
1D
0C
00
11
1%
0$
0F
1E
12
03
0(
1&
#740000
b1011 #
b1010 #
09
1>
1:
0?
1F
13
1(
#750000
b1011 #
19
0:
0F
03
0B
0(
0E
1C
10
02
0&
1$
#760000
b1111 #
b1101 #
b1100 #
09
0>
18
1:
1?
0I
1A
1F
1E
0C
00
12
13
1@
1(
1&
0$
0K
0E
0D
1C
10
01
02
05
1I
0A
0)
0&
0%
1$
1K
1E
1D
0C
00
11
12
15
1)
1&
1%
0$
#770000
b1101 #
19
0:
0F
0E
1C
10
02
03
1B
0@
0(
0&
1$
0I
1A
1E
0C
00
12
1&
0$
0K
1F
0E
02
13
05
0)
1(
0&
#780000
b1111 #
b1110 #
09
1>
1:
0?
1C
10
1$
#790000
b1111 #
19
0:
0C
00
0B
0$
0D
1C
10
01
0%
1$
#800000
b101 "
b111 #
b11 #
b1 #
b0 #
09
0>
08
0G
1;
1<
1:
1?
1I
0A
1@
1J
0F
1D
11
03
14
1A
1'
0(
1%
1F
0D
01
13
1(
0%
#810000
b1 #
19
0:
#820000
b11 #
b10 #
09
1>
1:
0?
1B
0@
0A
1D
0C
00
11
1%
0$
0F
1E
12
03
0(
1&
#830000
b11 #
19
0:
1F
13
1(
#840000
b111 #
b101 #
b100 #
09
0>
18
1:
1?
0I
1A
0F
03
0B
1@
0(
0J
1F
0E
02
13
04
1I
0A
0'
1(
0&
0D
1C
10
01
0%
1$
1J
0F
1D
11
03
14
1'
0(
1%
#850000
b101 #
19
0:
1F
1E
0C
00
12
13
1(
1&
0$
#860000
b111 #
b110 #
09
1>
1:
0?
0F
0E
1C
10
02
03
1B
0@
0(
0&
1$
0I
1A
1E
0C
00
12
1&
0$
0J
1F
0E
02
13
04
0'
1(
0&
#870000
b111 #
19
0:
1C
10
1$
#880000
b1111 #
b1011 #
b1001 #
b1000 #
09
0>
08
1G
1:
1?
1I
0A
0C
00
0B
1@
0$
1K
0F
1E
12
03
15
1A
1)
0(
1&
0E
1C
10
02
0&
1$
1F
0D
01
13
1(
0%
#890000
b1001 #
19
0:
#900000
b1011 #
b1010 #
09
1>
1:
0?
1B
0@
0A
1D
0C
00
11
1%
0$
0F
1E
12
03
0(
1&
#910000
b1011 #
19
0:
1F
13
1(
#920000
b1111 #
b1101 #
b1100 #
09
0>
18
1:
1?
0I
1A
0F
03
0B
1@
0(
0K
1F
0E
02
13
05
1I
0A
0)
1(
0&
0D
1C
10
01
0%
1$
1K
0F
1D
11
03
15
1)
0(
1%
#930000
b1101 #
19
0:
1F
1E
0C
00
12
13
1(
1&
0$
#940000
b1111 #
b1110 #
09
1>
1:
0?
0F
0E
1C
10
02
03
1B
0@
0(
0&
1$
0I
1A
1E
0C
00
12
1&
0$
0K
1F
0E
02
13
05
0)
1(
0&
#950000
b1111 #
19
0:
1C
10
1$
#960000
b111 "
b110 "
b111 #
b11 #
b1 #
b0 #
09
0>
08
0G
0;
1=
0<
1:
1?
1I
0A
0B
1@
1B
1A
1J
1E
0C
00
12
14
1'
1&
0$
0E
1C
10
02
0&
1$
#970000
b1 #
19
0:
0C
00
0B
0$
0D
1C
10
01
0%
1$
#980000
b11 #
b10 #
09
1>
1:
0?
#990000
b11 #
19
0:
1B
0@
0A
1D
0C
00
11
1%
0$
0F
1E
12
03
0(
1&
