Lab 6/Lab_6_Student2/simulation/qsim/Assignment_6.msim.vcd
$comment
	File created using the following command:
		vcd file Assignment_6.msim.vcd -direction
$end
$date
	Fri May 07 22:47:29 2021
$end
$version
	ModelSim Version 2020.1
$end
$timescale
	1ps
$end

$scope module updown_4bit_counter_vhd_vec_tst $end
$var wire 1 ! Clk $end
$var wire 1 " M $end
$var wire 1 # Q [3] $end
$var wire 1 $ Q [2] $end
$var wire 1 % Q [1] $end
$var wire 1 & Q [0] $end

$scope module i1 $end
$var wire 1 ' gnd $end
$var wire 1 ( vcc $end
$var wire 1 ) unknown $end
$var wire 1 * devoe $end
$var wire 1 + devclrn $end
$var wire 1 , devpor $end
$var wire 1 - ww_devoe $end
$var wire 1 . ww_devclrn $end
$var wire 1 / ww_devpor $end
$var wire 1 0 ww_Clk $end
$var wire 1 1 ww_M $end
$var wire 1 2 ww_Q [3] $end
$var wire 1 3 ww_Q [2] $end
$var wire 1 4 ww_Q [1] $end
$var wire 1 5 ww_Q [0] $end
$var wire 1 6 \Q[0]~output_o\ $end
$var wire 1 7 \Q[1]~output_o\ $end
$var wire 1 8 \Q[2]~output_o\ $end
$var wire 1 9 \Q[3]~output_o\ $end
$var wire 1 : \Clk~input_o\ $end
$var wire 1 ; \t_ff0|temp~0_combout\ $end
$var wire 1 < \t_ff0|temp~q\ $end
$var wire 1 = \M~input_o\ $end
$var wire 1 > \t_ff1|temp~0_combout\ $end
$var wire 1 ? \t_ff1|temp~q\ $end
$var wire 1 @ \t_ff2|temp~0_combout\ $end
$var wire 1 A \t_ff2|temp~q\ $end
$var wire 1 B \t_ff3|temp~0_combout\ $end
$var wire 1 C \t_ff3|temp~q\ $end
$var wire 1 D next_clk [2] $end
$var wire 1 E next_clk [1] $end
$var wire 1 F next_clk [0] $end
$var wire 1 G \ALT_INV_Clk~input_o\ $end
$upscope $end
$upscope $end
$enddefinitions $end
#0
$dumpvars
0!
0"
0'
1(
x)
1*
1+
1,
1-
1.
1/
00
01
06
07
08
09
0:
1;
0<
0=
1>
0?
1@
0A
1B
0C
1G
02
03
04
05
1D
1E
1F
0#
0$
0%
0&
$end
#10000
1!
10
1:
0G
#20000
0!
00
0:
1G
1<
0;
0F
16
15
1&
#30000
1!
10
1:
0G
#40000
0!
00
0:
1G
0<
1;
1F
1?
06
0>
0E
05
0&
17
14
1%
#50000
1!
10
1:
0G
#60000
0!
00
0:
1G
1<
0;
0F
16
15
1&
#70000
1!
10
1:
0G
#80000
0!
00
0:
1G
0<
1;
1F
0?
06
1>
1E
05
0&
1A
07
0@
0D
04
0%
18
13
1$
#90000
1!
10
1:
0G
#100000
0!
00
0:
1G
1<
0;
0F
16
15
1&
#110000
1!
10
1:
0G
#120000
0!
00
0:
1G
0<
1;
1F
1?
06
0>
0E
05
0&
17
14
1%
#130000
1!
10
1:
0G
#140000
0!
00
0:
1G
1<
0;
0F
16
15
1&
#150000
1!
10
1:
0G
#160000
0!
00
0:
1G
0<
1;
1F
0?
06
1>
1E
05
0&
0A
07
1@
1D
04
0%
1C
08
0B
03
0$
19
12
1#
#170000
1!
10
1:
0G
#180000
0!
00
0:
1G
1<
0;
0F
16
15
1&
#190000
1!
10
1:
0G
#200000
0!
00
0:
1G
0<
1;
1F
1?
06
0>
0E
05
0&
17
14
1%
#210000
1!
10
1:
0G
#220000
0!
00
0:
1G
1<
0;
0F
16
15
1&
#230000
1!
10
1:
0G
#240000
0!
00
0:
1G
0<
1;
1F
0?
06
1>
1E
05
0&
1A
07
0@
0D
04
0%
18
13
1$
#250000
1!
10
1:
0G
#260000
0!
00
0:
1G
1<
0;
0F
16
15
1&
#270000
1!
10
1:
0G
#280000
0!
00
0:
1G
0<
1;
1F
1?
06
0>
0E
05
0&
17
14
1%
#290000
1!
10
1:
0G
#300000
0!
00
0:
1G
1<
0;
0F
16
15
1&
#310000
1!
10
1:
0G
#320000
0!
1"
00
11
1=
0:
1G
1F
1E
1D
0<
0C
0A
0?
1;
0F
1>
0E
1@
0D
1B
06
07
08
09
05
04
03
02
0&
0%
0$
0#
#330000
1!
10
1:
0G
#340000
0!
00
0:
1G
1<
0;
1F
1?
16
0>
1E
15
1&
1A
17
0@
1D
14
1%
1C
18
0B
13
1$
19
12
1#
#350000
1!
10
1:
0G
#360000
0!
00
0:
1G
0<
1;
0F
06
05
0&
#370000
1!
10
1:
0G
#380000
0!
00
0:
1G
1<
0;
1F
0?
16
1>
0E
15
1&
07
04
0%
#390000
1!
10
1:
0G
#400000
0!
00
0:
1G
0<
1;
0F
06
05
0&
#410000
1!
10
1:
0G
#420000
0!
00
0:
1G
1<
0;
1F
1?
16
0>
1E
15
1&
0A
17
1@
0D
14
1%
08
03
0$
#430000
1!
10
1:
0G
#440000
0!
00
0:
1G
0<
1;
0F
06
05
0&
#450000
1!
10
1:
0G
#460000
0!
00
0:
1G
1<
0;
1F
0?
16
1>
0E
15
1&
07
04
0%
#470000
1!
10
1:
0G
#480000
0!
00
0:
1G
0<
1;
0F
06
05
0&
#490000
1!
10
1:
0G
#500000
0!
00
0:
1G
1<
0;
1F
1?
16
0>
1E
15
1&
1A
17
0@
1D
14
1%
0C
18
1B
13
1$
09
02
0#
#510000
1!
10
1:
0G
#520000
0!
00
0:
1G
0<
1;
0F
06
05
0&
#530000
1!
10
1:
0G
#540000
0!
00
0:
1G
1<
0;
1F
0?
16
1>
0E
15
1&
07
04
0%
#550000
1!
10
1:
0G
#560000
0!
00
0:
1G
0<
1;
0F
06
05
0&
#570000
1!
10
1:
0G
#580000
0!
00
0:
1G
1<
0;
1F
1?
16
0>
1E
15
1&
0A
17
1@
0D
14
1%
08
03
0$
#590000
1!
10
1:
0G
#600000
0!
00
0:
1G
0<
1;
0F
06
05
0&
#610000
1!
10
1:
0G
#620000
0!
00
0:
1G
1<
0;
1F
0?
16
1>
0E
15
1&
07
04
0%
#630000
1!
10
1:
0G
#640000
0!
0"
00
01
0=
0:
1G
0F
1E
1D
0<
1C
1A
1;
1F
0@
0D
0B
1?
06
18
19
0>
0E
05
13
12
0&
1$
1#
17
14
1%
#650000
1!
10
1:
0G
#660000
0!
00
0:
1G
1<
0;
0F
16
15
1&
#670000
1!
10
1:
0G
#680000
0!
00
0:
1G
0<
1;
1F
0?
06
1>
1E
05
0&
0A
07
1@
1D
04
0%
0C
08
1B
03
0$
09
02
0#
#690000
1!
10
1:
0G
#700000
0!
00
0:
1G
1<
0;
0F
16
15
1&
#710000
1!
10
1:
0G
#720000
0!
00
0:
1G
0<
1;
1F
1?
06
0>
0E
05
0&
17
14
1%
#730000
1!
10
1:
0G
#740000
0!
00
0:
1G
1<
0;
0F
16
15
1&
#750000
1!
10
1:
0G
#760000
0!
00
0:
1G
0<
1;
1F
0?
06
1>
1E
05
0&
1A
07
0@
0D
04
0%
18
13
1$
#770000
1!
10
1:
0G
#780000
0!
00
0:
1G
1<
0;
0F
16
15
1&
#790000
1!
10
1:
0G
#800000
0!
00
0:
1G
0<
1;
1F
1?
06
0>
0E
05
0&
17
14
1%
#810000
1!
10
1:
0G
#820000
0!
00
0:
1G
1<
0;
0F
16
15
1&
#830000
1!
10
1:
0G
#840000
0!
00
0:
1G
0<
1;
1F
0?
06
1>
1E
05
0&
0A
07
1@
1D
04
0%
1C
08
0B
03
0$
19
12
1#
#850000
1!
10
1:
0G
#860000
0!
00
0:
1G
1<
0;
0F
16
15
1&
#870000
1!
10
1:
0G
#880000
0!
00
0:
1G
0<
1;
1F
1?
06
0>
0E
05
0&
17
14
1%
#890000
1!
10
1:
0G
#900000
0!
00
0:
1G
1<
0;
0F
16
15
1&
#910000
1!
10
1:
0G
#920000
0!
00
0:
1G
0<
1;
1F
0?
06
1>
1E
05
0&
1A
07
0@
0D
04
0%
18
13
1$
#930000
1!
10
1:
0G
#940000
0!
00
0:
1G
1<
0;
0F
16
15
1&
#950000
1!
10
1:
0G
#960000
0!
1"
00
11
1=
0:
1G
1F
0E
1D
0<
0C
1?
1;
0F
0>
1E
1B
06
0A
17
09
05
1@
0D
14
02
0&
1%
0#
08
03
0$
#970000
1!
10
1:
0G
#980000
0!
00
0:
1G
1<
0;
1F
0?
16
1>
0E
15
1&
07
04
0%
#990000
1!
10
1:
0G
