Lab 5/Lab 5/simulation/qsim/Assignment_5.msim.vcd
$comment
	File created using the following command:
		vcd file Assignment_5.msim.vcd -direction
$end
$date
	Wed May 05 19:20:22 2021
$end
$version
	ModelSim Version 2020.1
$end
$timescale
	1ps
$end

$scope module sevensegment_decoder_vhd_vec_tst $end
$var wire 1 ! input [3] $end
$var wire 1 " input [2] $end
$var wire 1 # input [1] $end
$var wire 1 $ input [0] $end
$var wire 1 % seven_segment [6] $end
$var wire 1 & seven_segment [5] $end
$var wire 1 ' seven_segment [4] $end
$var wire 1 ( seven_segment [3] $end
$var wire 1 ) seven_segment [2] $end
$var wire 1 * seven_segment [1] $end
$var wire 1 + seven_segment [0] $end

$scope module i1 $end
$var wire 1 , gnd $end
$var wire 1 - vcc $end
$var wire 1 . unknown $end
$var wire 1 / devoe $end
$var wire 1 0 devclrn $end
$var wire 1 1 devpor $end
$var wire 1 2 ww_devoe $end
$var wire 1 3 ww_devclrn $end
$var wire 1 4 ww_devpor $end
$var wire 1 5 ww_input [3] $end
$var wire 1 6 ww_input [2] $end
$var wire 1 7 ww_input [1] $end
$var wire 1 8 ww_input [0] $end
$var wire 1 9 ww_seven_segment [6] $end
$var wire 1 : ww_seven_segment [5] $end
$var wire 1 ; ww_seven_segment [4] $end
$var wire 1 < ww_seven_segment [3] $end
$var wire 1 = ww_seven_segment [2] $end
$var wire 1 > ww_seven_segment [1] $end
$var wire 1 ? ww_seven_segment [0] $end
$var wire 1 @ \seven_segment[0]~output_o\ $end
$var wire 1 A \seven_segment[1]~output_o\ $end
$var wire 1 B \seven_segment[2]~output_o\ $end
$var wire 1 C \seven_segment[3]~output_o\ $end
$var wire 1 D \seven_segment[4]~output_o\ $end
$var wire 1 E \seven_segment[5]~output_o\ $end
$var wire 1 F \seven_segment[6]~output_o\ $end
$var wire 1 G \input[0]~input_o\ $end
$var wire 1 H \input[1]~input_o\ $end
$var wire 1 I \input[2]~input_o\ $end
$var wire 1 J \input[3]~input_o\ $end
$var wire 1 K \Mux6~0_combout\ $end
$var wire 1 L \Mux5~0_combout\ $end
$var wire 1 M \Mux4~0_combout\ $end
$var wire 1 N \Mux3~0_combout\ $end
$var wire 1 O \Mux2~0_combout\ $end
$var wire 1 P \Mux1~0_combout\ $end
$var wire 1 Q \Mux0~0_combout\ $end
$var wire 1 R \ALT_INV_Mux5~0_combout\ $end
$var wire 1 S \ALT_INV_Mux4~0_combout\ $end
$var wire 1 T \ALT_INV_Mux1~0_combout\ $end
$var wire 1 U \ALT_INV_Mux0~0_combout\ $end
$var wire 1 V \ALT_INV_Mux3~0_combout\ $end
$var wire 1 W \ALT_INV_Mux2~0_combout\ $end
$upscope $end
$upscope $end
$enddefinitions $end
#0
$dumpvars
0,
1-
x.
1/
10
11
12
13
14
0@
1A
1B
1C
1D
1E
1F
0G
0H
0I
0J
0K
0L
0M
0N
0O
0P
0Q
1R
1S
1T
1U
1V
1W
0!
0"
0#
0$
1%
1&
1'
1(
1)
1*
0+
05
06
07
08
19
1:
1;
1<
1=
1>
0?
$end
#20000
1$
18
1G
1L
1M
1N
1Q
0U
0V
0S
0R
0A
0B
0C
0F
0>
0=
0<
09
0*
0)
0(
0%
#40000
0$
1#
08
17
1H
0G
1K
0M
0N
1O
0Q
1U
0W
1V
1S
1@
1B
1C
0D
1F
1?
1=
1<
0;
19
1+
1)
1(
0'
1%
#60000
1$
18
1G
1M
0O
1W
0S
0B
1D
0=
1;
0)
1'
#80000
0$
0#
1"
08
07
16
1I
0H
0G
0L
1N
1Q
0U
0V
1R
1A
0C
0F
1>
0<
09
1*
0(
0%
#100000
1$
18
1G
0N
1P
0Q
1U
0T
1V
1C
0E
1F
1<
0:
19
1(
0&
1%
#120000
0$
1#
08
17
1H
0G
0M
1S
1B
1=
1)
#140000
1$
18
1G
0K
1L
1M
1N
0P
1T
0V
0S
0R
0@
0A
0B
0C
1E
0?
0>
0=
0<
1:
0+
0*
0)
0(
1&
#160000
0$
0#
0"
1!
08
07
06
15
1J
0I
0H
0G
1K
0L
0M
0N
1V
1S
1R
1@
1A
1B
1C
1?
1>
1=
1<
1+
1*
1)
1(
#180000
1$
18
1G
1M
0S
0B
0=
0)
#200000
0$
1#
08
17
1H
0G
0K
1L
1N
1O
1P
1Q
0U
0T
0W
0V
0R
0@
0A
0C
0D
0E
0F
0?
0>
0<
0;
0:
09
0+
0*
0(
0'
0&
0%
#220000
1$
18
1G
#240000
0$
0#
1"
08
07
16
1I
0H
0G
#260000
1$
18
1G
#280000
0$
1#
08
17
1H
0G
#300000
1$
18
1G
#320000
0$
0#
0"
0!
08
07
06
05
0J
0I
0H
0G
0L
0M
0N
0O
0P
0Q
1U
1T
1W
1V
1S
1R
1A
1B
1C
1D
1E
1F
1>
1=
1<
1;
1:
19
1*
1)
1(
1'
1&
1%
#340000
1$
18
1G
1L
1M
1N
1Q
0U
0V
0S
0R
0A
0B
0C
0F
0>
0=
0<
09
0*
0)
0(
0%
#360000
0$
1#
08
17
1H
0G
1K
0M
0N
1O
0Q
1U
0W
1V
1S
1@
1B
1C
0D
1F
1?
1=
1<
0;
19
1+
1)
1(
0'
1%
#380000
1$
18
1G
1M
0O
1W
0S
0B
1D
0=
1;
0)
1'
#400000
0$
0#
1"
08
07
16
1I
0H
0G
0L
1N
1Q
0U
0V
1R
1A
0C
0F
1>
0<
09
1*
0(
0%
#420000
1$
18
1G
0N
1P
0Q
1U
0T
1V
1C
0E
1F
1<
0:
19
1(
0&
1%
#440000
0$
1#
08
17
1H
0G
0M
1S
1B
1=
1)
#460000
1$
18
1G
0K
1L
1M
1N
0P
1T
0V
0S
0R
0@
0A
0B
0C
1E
0?
0>
0=
0<
1:
0+
0*
0)
0(
1&
#480000
0$
0#
0"
1!
08
07
06
15
1J
0I
0H
0G
1K
0L
0M
0N
1V
1S
1R
1@
1A
1B
1C
1?
1>
1=
1<
1+
1*
1)
1(
#500000
1$
18
1G
1M
0S
0B
0=
0)
#520000
0$
1#
08
17
1H
0G
0K
1L
1N
1O
1P
1Q
0U
0T
0W
0V
0R
0@
0A
0C
0D
0E
0F
0?
0>
0<
0;
0:
09
0+
0*
0(
0'
0&
0%
#540000
1$
18
1G
#560000
0$
0#
1"
08
07
16
1I
0H
0G
#580000
1$
18
1G
#600000
0$
1#
08
17
1H
0G
#620000
1$
18
1G
#640000
0$
0#
0"
0!
08
07
06
05
0J
0I
0H
0G
0L
0M
0N
0O
0P
0Q
1U
1T
1W
1V
1S
1R
1A
1B
1C
1D
1E
1F
1>
1=
1<
1;
1:
19
1*
1)
1(
1'
1&
1%
#660000
1$
18
1G
1L
1M
1N
1Q
0U
0V
0S
0R
0A
0B
0C
0F
0>
0=
0<
09
0*
0)
0(
0%
#680000
0$
1#
08
17
1H
0G
1K
0M
0N
1O
0Q
1U
0W
1V
1S
1@
1B
1C
0D
1F
1?
1=
1<
0;
19
1+
1)
1(
0'
1%
#700000
1$
18
1G
1M
0O
1W
0S
0B
1D
0=
1;
0)
1'
#720000
0$
0#
1"
08
07
16
1I
0H
0G
0L
1N
1Q
0U
0V
1R
1A
0C
0F
1>
0<
09
1*
0(
0%
#740000
1$
18
1G
0N
1P
0Q
1U
0T
1V
1C
0E
1F
1<
0:
19
1(
0&
1%
#760000
0$
1#
08
17
1H
0G
0M
1S
1B
1=
1)
#780000
1$
18
1G
0K
1L
1M
1N
0P
1T
0V
0S
0R
0@
0A
0B
0C
1E
0?
0>
0=
0<
1:
0+
0*
0)
0(
1&
#800000
0$
0#
0"
1!
08
07
06
15
1J
0I
0H
0G
1K
0L
0M
0N
1V
1S
1R
1@
1A
1B
1C
1?
1>
1=
1<
1+
1*
1)
1(
#820000
1$
18
1G
1M
0S
0B
0=
0)
#840000
0$
1#
08
17
1H
0G
0K
1L
1N
1O
1P
1Q
0U
0T
0W
0V
0R
0@
0A
0C
0D
0E
0F
0?
0>
0<
0;
0:
09
0+
0*
0(
0'
0&
0%
#860000
1$
18
1G
#880000
0$
0#
1"
08
07
16
1I
0H
0G
#900000
1$
18
1G
#920000
0$
1#
08
17
1H
0G
#940000
1$
18
1G
#960000
0$
0#
0"
0!
08
07
06
05
0J
0I
0H
0G
0L
0M
0N
0O
0P
0Q
1U
1T
1W
1V
1S
1R
1A
1B
1C
1D
1E
1F
1>
1=
1<
1;
1:
19
1*
1)
1(
1'
1&
1%
#980000
1$
18
1G
1L
1M
1N
1Q
0U
0V
0S
0R
0A
0B
0C
0F
0>
0=
0<
09
0*
0)
0(
0%
