Lab 1/simulation/qsim/Assi1.msim.vcd
$comment
	File created using the following command:
		vcd file Assi1.msim.vcd -direction
$end
$date
	Tue Apr 27 11:07:21 2021
$end
$version
	ModelSim Version 10.4b
$end
$timescale
	1ps
$end

$scope module Assi1_vlg_vec_tst $end
$var reg 1 ! C $end
$var reg 1 " D $end
$var reg 1 # X $end
$var reg 1 $ Y $end
$var reg 1 % Z $end
$var wire 1 & f $end

$scope module i1 $end
$var wire 1 ' gnd $end
$var wire 1 ( vcc $end
$var wire 1 ) unknown $end
$var tri1 1 * devclrn $end
$var tri1 1 + devpor $end
$var tri1 1 , devoe $end
$var wire 1 - f~output_o $end
$var wire 1 . D~input_o $end
$var wire 1 / X~input_o $end
$var wire 1 0 Y~input_o $end
$var wire 1 1 Z~input_o $end
$var wire 1 2 C~input_o $end
$var wire 1 3 inst2~0_combout $end
$var wire 1 4 inst2~1_combout $end
$upscope $end
$upscope $end
$enddefinitions $end
#0
$dumpvars
0!
0"
0#
0$
0%
0&
0'
1(
x)
1*
1+
1,
0-
0.
0/
00
01
02
13
04
$end
#25000
1%
11
03
#37500
1$
10
#50000
1#
0%
1/
01
#75000
1"
0$
1%
1.
00
11
#100000
1!
0#
0%
12
0/
01
#112500
1$
10
#125000
1%
11
#150000
0"
1#
0$
0%
0.
1/
00
01
#175000
1%
11
#187500
1$
10
#200000
0!
0#
0%
02
0/
01
#225000
1"
0$
1%
1.
00
11
#250000
1#
0%
1/
01
#262500
1$
10
#275000
1%
11
#300000
1!
0"
0#
0$
0%
12
0.
0/
00
01
#325000
1%
11
#337500
1$
10
#350000
1#
0%
1/
01
#375000
1"
0$
1%
1.
00
11
#400000
0!
0#
0%
02
0/
01
13
14
1-
1&
#412500
1$
10
03
04
0-
0&
#425000
1%
11
#450000
0"
1#
0$
0%
0.
1/
00
01
#475000
1%
11
#487500
1$
10
#500000
1!
0#
0%
12
0/
01
#525000
1"
0$
1%
1.
00
11
#550000
1#
0%
1/
01
#562500
1$
10
#575000
1%
11
#600000
0!
0"
0#
0$
0%
02
0.
0/
00
01
13
#625000
1%
11
03
#637500
1$
10
#650000
1#
0%
1/
01
#675000
1"
0$
1%
1.
00
11
#700000
1!
0#
0%
12
0/
01
#712500
1$
10
#725000
1%
11
#750000
0"
1#
0$
0%
0.
1/
00
01
#775000
1%
11
#787500
1$
10
#800000
0!
0#
0%
02
0/
01
#825000
1"
0$
1%
1.
00
11
#850000
1#
0%
1/
01
#862500
1$
10
#875000
1%
11
#900000
1!
0"
0#
0$
0%
12
0.
0/
00
01
#925000
1%
11
#937500
1$
10
#950000
1#
0%
1/
01
#975000
1"
0$
1%
1.
00
11
