Lab 6/Lab_6_Student1/simulation/qsim/Assignment6.msim.vcd
$comment
	File created using the following command:
		vcd file Assignment6.msim.vcd -direction
$end
$date
	Sat May 08 10:22:01 2021
$end
$version
	ModelSim Version 10.4b
$end
$timescale
	1ps
$end

$scope module Assignment6_vlg_vec_tst $end
$var reg 1 ! clk $end
$var reg 1 " D $end
$var reg 1 # U $end
$var wire 1 $ O0 $end
$var wire 1 % O1 $end
$var wire 1 & O2 $end
$var wire 1 ' O3 $end

$scope module i1 $end
$var wire 1 ( gnd $end
$var wire 1 ) vcc $end
$var wire 1 * unknown $end
$var tri1 1 + devclrn $end
$var tri1 1 , devpor $end
$var tri1 1 - devoe $end
$var wire 1 . O0~output_o $end
$var wire 1 / O1~output_o $end
$var wire 1 0 O2~output_o $end
$var wire 1 1 O3~output_o $end
$var wire 1 2 clk~input_o $end
$var wire 1 3 T0~0_combout $end
$var wire 1 4 T0~q $end
$var wire 1 5 D~input_o $end
$var wire 1 6 U~input_o $end
$var wire 1 7 clk1~combout $end
$var wire 1 8 T1~0_combout $end
$var wire 1 9 T1~q $end
$var wire 1 : clk2~combout $end
$var wire 1 ; T2~0_combout $end
$var wire 1 < T2~q $end
$var wire 1 = clk3~combout $end
$var wire 1 > T3~0_combout $end
$var wire 1 ? T3~q $end
$upscope $end
$upscope $end
$enddefinitions $end
#0
$dumpvars
0!
0"
0#
0$
0%
0&
0'
0(
1)
x*
1+
1,
1-
0.
0/
00
01
02
13
04
05
06
17
18
09
1:
1;
0<
1=
1>
0?
$end
#50000
1"
15
0=
0:
07
#75000
1#
16
#100000
1!
0"
12
05
1=
1:
17
1?
1<
19
1/
10
11
1'
1&
1%
0>
0=
0;
0:
08
#150000
0#
1"
06
15
1=
1:
07
0?
0<
00
01
0'
0&
1>
0=
1;
#200000
0!
0"
02
05
1=
17
1?
09
14
1.
0/
11
1'
0%
1$
0>
18
03
#225000
1#
16
07
#250000
1"
15
0=
0:
#300000
1!
0#
0"
12
06
05
1=
1:
17
0?
1<
19
1/
10
01
0'
1&
1%
1>
0;
08
#350000
1"
15
#375000
1#
16
0=
0:
07
#400000
0!
0"
02
05
04
0.
0$
17
13
09
0/
0%
1:
18
0<
00
0&
1=
1;
1?
11
1'
0>
#450000
0#
1"
06
15
0=
0:
07
#500000
1!
0"
12
05
1=
1:
17
0?
1<
19
1/
10
01
0'
1&
1%
1>
0;
08
#525000
1#
16
0=
0:
#550000
1"
15
07
#600000
0!
0#
0"
02
06
05
1=
1:
17
1?
0<
09
14
1.
0/
00
11
1'
0&
0%
1$
0>
1;
18
03
#650000
1"
15
0=
0:
#675000
1#
16
07
#700000
1!
0"
12
05
1=
1:
0?
1<
10
01
0'
1&
1>
0=
0;
#750000
0#
1"
06
15
1=
0:
17
1?
19
1/
11
1'
1%
0>
1:
08
0<
00
0&
0=
1;
#800000
0!
0"
02
05
1=
0?
04
0.
01
0'
0$
1>
13
#825000
1#
16
0:
#850000
1"
15
0=
07
#900000
1!
0#
0"
12
06
05
1=
1:
17
1?
1<
09
0/
10
11
1'
1&
0%
0>
0;
18
#950000
1"
15
0:
07
#975000
1#
16
0=
