Lab 7/Lab 7_Student2/simulation/qsim/Assignment_7.msim.vcd
$comment
	File created using the following command:
		vcd file Assignment_7.msim.vcd -direction
$end
$date
	Mon May 10 00:20:45 2021
$end
$version
	ModelSim Version 2020.1
$end
$timescale
	1ps
$end

$scope module johnson_counter_vhd_vec_tst $end
$var wire 1 ! Clk $end
$var wire 1 " Q [3] $end
$var wire 1 # Q [2] $end
$var wire 1 $ Q [1] $end
$var wire 1 % Q [0] $end

$scope module i1 $end
$var wire 1 & gnd $end
$var wire 1 ' vcc $end
$var wire 1 ( unknown $end
$var wire 1 ) devoe $end
$var wire 1 * devclrn $end
$var wire 1 + devpor $end
$var wire 1 , ww_devoe $end
$var wire 1 - ww_devclrn $end
$var wire 1 . ww_devpor $end
$var wire 1 / ww_Clk $end
$var wire 1 0 ww_Q [3] $end
$var wire 1 1 ww_Q [2] $end
$var wire 1 2 ww_Q [1] $end
$var wire 1 3 ww_Q [0] $end
$var wire 1 4 \Q[0]~output_o\ $end
$var wire 1 5 \Q[1]~output_o\ $end
$var wire 1 6 \Q[2]~output_o\ $end
$var wire 1 7 \Q[3]~output_o\ $end
$var wire 1 8 \Clk~input_o\ $end
$var wire 1 9 \d_ff3|Q~0_combout\ $end
$var wire 1 : \d_ff3|Q~q\ $end
$var wire 1 ; \d_ff2|Q~q\ $end
$var wire 1 < \d_ff1|Q~q\ $end
$var wire 1 = \d_ff0|Q~q\ $end
$var wire 1 > \ALT_INV_Clk~input_o\ $end
$upscope $end
$upscope $end
$enddefinitions $end
#0
$dumpvars
0!
0&
1'
x(
1)
1*
1+
1,
1-
1.
0/
04
05
06
07
08
19
0:
0;
0<
0=
1>
00
01
02
03
0"
0#
0$
0%
$end
#10000
1!
1/
18
0>
#20000
0!
0/
08
1>
1:
17
10
1"
#30000
1!
1/
18
0>
#40000
0!
0/
08
1>
1;
16
11
1#
#50000
1!
1/
18
0>
#60000
0!
0/
08
1>
1<
15
12
1$
#70000
1!
1/
18
0>
#80000
0!
0/
08
1>
1=
09
14
13
1%
#90000
1!
1/
18
0>
#100000
0!
0/
08
1>
0:
07
00
0"
#110000
1!
1/
18
0>
#120000
0!
0/
08
1>
0;
06
01
0#
#130000
1!
1/
18
0>
#140000
0!
0/
08
1>
0<
05
02
0$
#150000
1!
1/
18
0>
#160000
0!
0/
08
1>
0=
19
04
03
0%
#170000
1!
1/
18
0>
#180000
0!
0/
08
1>
1:
17
10
1"
#190000
1!
1/
18
0>
#200000
0!
0/
08
1>
1;
16
11
1#
#210000
1!
1/
18
0>
#220000
0!
0/
08
1>
1<
15
12
1$
#230000
1!
1/
18
0>
#240000
0!
0/
08
1>
1=
09
14
13
1%
#250000
1!
1/
18
0>
#260000
0!
0/
08
1>
0:
07
00
0"
#270000
1!
1/
18
0>
#280000
0!
0/
08
1>
0;
06
01
0#
#290000
1!
1/
18
0>
#300000
0!
0/
08
1>
0<
05
02
0$
#310000
1!
1/
18
0>
#320000
0!
0/
08
1>
0=
19
04
03
0%
#330000
1!
1/
18
0>
#340000
0!
0/
08
1>
1:
17
10
1"
#350000
1!
1/
18
0>
#360000
0!
0/
08
1>
1;
16
11
1#
#370000
1!
1/
18
0>
#380000
0!
0/
08
1>
1<
15
12
1$
#390000
1!
1/
18
0>
#400000
0!
0/
08
1>
1=
09
14
13
1%
#410000
1!
1/
18
0>
#420000
0!
0/
08
1>
0:
07
00
0"
#430000
1!
1/
18
0>
#440000
0!
0/
08
1>
0;
06
01
0#
#450000
1!
1/
18
0>
#460000
0!
0/
08
1>
0<
05
02
0$
#470000
1!
1/
18
0>
#480000
0!
0/
08
1>
0=
19
04
03
0%
#490000
1!
1/
18
0>
#500000
0!
0/
08
1>
1:
17
10
1"
#510000
1!
1/
18
0>
#520000
0!
0/
08
1>
1;
16
11
1#
#530000
1!
1/
18
0>
#540000
0!
0/
08
1>
1<
15
12
1$
#550000
1!
1/
18
0>
#560000
0!
0/
08
1>
1=
09
14
13
1%
#570000
1!
1/
18
0>
#580000
0!
0/
08
1>
0:
07
00
0"
#590000
1!
1/
18
0>
#600000
0!
0/
08
1>
0;
06
01
0#
#610000
1!
1/
18
0>
#620000
0!
0/
08
1>
0<
05
02
0$
#630000
1!
1/
18
0>
#640000
0!
0/
08
1>
0=
19
04
03
0%
#650000
1!
1/
18
0>
#660000
0!
0/
08
1>
1:
17
10
1"
#670000
1!
1/
18
0>
#680000
0!
0/
08
1>
1;
16
11
1#
#690000
1!
1/
18
0>
#700000
0!
0/
08
1>
1<
15
12
1$
#710000
1!
1/
18
0>
#720000
0!
0/
08
1>
1=
09
14
13
1%
#730000
1!
1/
18
0>
#740000
0!
0/
08
1>
0:
07
00
0"
#750000
1!
1/
18
0>
#760000
0!
0/
08
1>
0;
06
01
0#
#770000
1!
1/
18
0>
#780000
0!
0/
08
1>
0<
05
02
0$
#790000
1!
1/
18
0>
#800000
0!
0/
08
1>
0=
19
04
03
0%
#810000
1!
1/
18
0>
#820000
0!
0/
08
1>
1:
17
10
1"
#830000
1!
1/
18
0>
#840000
0!
0/
08
1>
1;
16
11
1#
#850000
1!
1/
18
0>
#860000
0!
0/
08
1>
1<
15
12
1$
#870000
1!
1/
18
0>
#880000
0!
0/
08
1>
1=
09
14
13
1%
#890000
1!
1/
18
0>
#900000
0!
0/
08
1>
0:
07
00
0"
#910000
1!
1/
18
0>
#920000
0!
0/
08
1>
0;
06
01
0#
#930000
1!
1/
18
0>
#940000
0!
0/
08
1>
0<
05
02
0$
#950000
1!
1/
18
0>
#960000
0!
0/
08
1>
0=
19
04
03
0%
#970000
1!
1/
18
0>
#980000
0!
0/
08
1>
1:
17
10
1"
#990000
1!
1/
18
0>
